{
  "web" : {
    "client_id": "526907992446-5j4slde1ium23i07qe8ab21gh5rg3nji.apps.googleusercontent.com",
    "client_secret": "ZMiEzm9RCHzAckAdR7PRAgfo",
    "redirect_uris": [
      "http://tablefootball.dev:3000/group_invitations/google_callback",
      "http://tablefootball.dev:3000/api/v1/omniauth/google",
      "http://krzysztofzielonka.pl/api/v1/omniauth/google"
    ],
    "auth_uri": "https://accounts.google.com/o/oauth2/auth",
    "token_uri": "https://accounts.google.com/o/oauth2/token"
  }
}
